<svg xmlns="http://www.w3.org/2000/svg" width="21.354" height="17.091" viewBox="0 0 21.354 17.091">
  <g id="icono_twitter" data-name="icono twitter" transform="translate(21.354 2.02)">
    <path id="Trazado_5" data-name="Trazado 5" d="M0,0A8.853,8.853,0,0,1-2.517.68,4.33,4.33,0,0,0-.591-1.708,8.851,8.851,0,0,1-3.373-.659a4.408,4.408,0,0,0-3.2-1.361A4.349,4.349,0,0,0-10.951,2.3a4.474,4.474,0,0,0,.112.983,12.5,12.5,0,0,1-9.034-4.5A4.266,4.266,0,0,0-20.466.945a4.3,4.3,0,0,0,1.952,3.589A4.417,4.417,0,0,1-20.5,4V4.05a4.206,4.206,0,0,0,.3,1.563A4.372,4.372,0,0,0-16.98,8.279a4.5,4.5,0,0,1-1.157.153,4.5,4.5,0,0,1-.824-.078,4.383,4.383,0,0,0,4.1,2.993,8.878,8.878,0,0,1-5.443,1.85,9.053,9.053,0,0,1-1.046-.06,12.561,12.561,0,0,0,6.718,1.934A12.2,12.2,0,0,0-2.47,5.4a11.762,11.762,0,0,0,.3-2.6c0-.186,0-.373-.012-.558A8.82,8.82,0,0,0,0,0" fill="#df867c"/>
  </g>
</svg>
