<svg xmlns="http://www.w3.org/2000/svg" width="11.983" height="22.594" viewBox="0 0 11.983 22.594">
  <g id="icono_facebook" data-name="icono facebook" transform="translate(7.212 5.175)">
    <path id="Trazado_1" data-name="Trazado 1" d="M0,0C0-1.351,1.148-1.149,1.148-1.149l3.622,0,0-4.024-5.432,0c-4.109,0-4.213,4.515-4.213,4.515V2.429l-2.336.017V6.125h2.337l.006,11.3,4.877,0L0,6.122l4.138,0,.63-3.766L0,2.392V2.357S0,1.351,0,0" fill="#df867c"/>
  </g>
</svg>
